{
    "pack": {
        "pack_format": 48,
        "description": "Replaces traditional slab and stair recipes with ones that fit in the 2x2 inventory crafting grid\nand let you freely craft stairs, slabs and blocks into one another."
    }
}
