{
  "type": "minecraft:crafting_shaped",
  "pattern": [ "===" ],
  "key": {
    "=": "minecraft:iron_ingot"
  },
  "result": {
    "id": "minecraft:heavy_weighted_pressure_plate",
    "count": 2
  }
}
